{
    "text": "",
    "count": 10000,
    "parsed": [],
    "hints": [
        {
            "food": {
                "foodId": "food_bir0zfhbyf5kxyafbizmwbcu265b",
                "label": "Spices, Sage, Ground",
                "knownAs": "Spices, sage, ground",
                "nutrients": {
                    "ENERC_KCAL": 315.0,
                    "PROCNT": 10.6,
                    "FAT": 12.8,
                    "CHOCDF": 60.7,
                    "FIBTG": 40.3
                },
                "category": "Generic foods",
                "categoryLabel": "food",
                "image": "https://www.edamam.com/food-img/509/50984580e9aad4b4ddd5b7ed45a64bf4.jpg"
            },
            "measures": [
                {
                    "uri": "http://www.edamam.com/ontologies/edamam.owl#Measure_gram",
                    "label": "Gram",
                    "weight": 1.0
                },
                {
                    "uri": "http://www.edamam.com/ontologies/edamam.owl#Measure_serving",
                    "label": "Serving",
                    "weight": 1.0
                },
                {
                    "uri": "http://www.edamam.com/ontologies/edamam.owl#Measure_teaspoon",
                    "label": "Teaspoon",
                    "weight": 0.7
                },
                {
                    "uri": "http://www.edamam.com/ontologies/edamam.owl#Measure_tablespoon",
                    "label": "Tablespoon",
                    "weight": 2.0
                },
                {
                    "uri": "http://www.edamam.com/ontologies/edamam.owl#Measure_leaf",
                    "label": "Leaf",
                    "weight": 0.5
                },
                {
                    "uri": "http://www.edamam.com/ontologies/edamam.owl#Measure_unit",
                    "label": "Whole",
                    "weight": 7.2
                },
                {
                    "uri": "http://www.edamam.com/ontologies/edamam.owl#Measure_ounce",
                    "label": "Ounce",
                    "weight": 28.349523125
                },
                {
                    "uri": "http://www.edamam.com/ontologies/edamam.owl#Measure_bunch",
                    "label": "Bunch",
                    "weight": 7.2
                },
                {
                    "uri": "http://www.edamam.com/ontologies/edamam.owl#Measure_pound",
                    "label": "Pound",
                    "weight": 453.59237
                },
                {
                    "uri": "http://www.edamam.com/ontologies/edamam.owl#Measure_kilogram",
                    "label": "Kilogram",
                    "weight": 1000.0
                },
                {
                    "uri": "http://www.edamam.com/ontologies/edamam.owl#Measure_handful",
                    "label": "Handful",
                    "weight": 4.0
                }
            ]
        },
        {
            "food": {
                "foodId": "food_afdseyxa19m8vla9rpk8ybxemhut",
                "label": "Spices, Savory, Ground",
                "knownAs": "Spices, savory, ground",
                "nutrients": {
                    "ENERC_KCAL": 272.0,
                    "PROCNT": 6.73,
                    "FAT": 5.91,
                    "CHOCDF": 68.7,
                    "FIBTG": 45.7
                },
                "category": "Generic foods",
                "categoryLabel": "food",
                "image": "https://www.edamam.com/food-img/088/08843b1109f444d69717111bcacc82be.jpg"
            },
            "measures": [
                {
                    "uri": "http://www.edamam.com/ontologies/edamam.owl#Measure_serving",
                    "label": "Serving",
                    "weight": 2.0
                },
                {
                    "uri": "http://www.edamam.com/ontologies/edamam.owl#Measure_teaspoon",
                    "label": "Teaspoon",
                    "weight": 1.4
                },
                {
                    "uri": "http://www.edamam.com/ontologies/edamam.owl#Measure_tablespoon",
                    "label": "Tablespoon",
                    "weight": 4.4
                },
                {
                    "uri": "http://www.edamam.com/ontologies/edamam.owl#Measure_pound",
                    "label": "Pound",
                    "weight": 453.59237
                },
                {
                    "uri": "http://www.edamam.com/ontologies/edamam.owl#Measure_ounce",
                    "label": "Ounce",
                    "weight": 28.349523125
                },
                {
                    "uri": "http://www.edamam.com/ontologies/edamam.owl#Measure_gram",
                    "label": "Gram",
                    "weight": 1.0
                },
                {
                    "uri": "http://www.edamam.com/ontologies/edamam.owl#Measure_kilogram",
                    "label": "Kilogram",
                    "weight": 1000.0
                }
            ]
        },
        {
            "food": {
                "foodId": "food_blzhdxbbxjqfr3bzzwn21bgsfl9t",
                "label": "Spices, Tarragon, Dried",
                "knownAs": "Spices, tarragon, dried",
                "nutrients": {
                    "ENERC_KCAL": 295.0,
                    "PROCNT": 22.8,
                    "FAT": 7.24,
                    "CHOCDF": 50.2,
                    "FIBTG": 7.4
                },
                "category": "Generic foods",
                "categoryLabel": "food",
                "image": "https://www.edamam.com/food-img/22f/22f8945d157d8b759c30e6738639991b.jpg"
            },
            "measures": [
                {
                    "uri": "http://www.edamam.com/ontologies/edamam.owl#Measure_serving",
                    "label": "Serving",
                    "weight": 2.0
                },
                {
                    "uri": "http://www.edamam.com/ontologies/edamam.owl#Measure_teaspoon",
                    "label": "Teaspoon",
                    "weight": 0.6,
                    "qualified": [
                        {
                            "qualifiers": [
                                {
                                    "uri": "http://www.edamam.com/ontologies/edamam.owl#Qualifier_ground",
                                    "label": "ground"
                                }
                            ],
                            "weight": 1.6
                        }
                    ]
                },
                {
                    "uri": "http://www.edamam.com/ontologies/edamam.owl#Measure_tablespoon",
                    "label": "Tablespoon",
                    "weight": 1.8,
                    "qualified": [
                        {
                            "qualifiers": [
                                {
                                    "uri": "http://www.edamam.com/ontologies/edamam.owl#Qualifier_ground",
                                    "label": "ground"
                                }
                            ],
                            "weight": 4.8
                        }
                    ]
                },
                {
                    "uri": "http://www.edamam.com/ontologies/edamam.owl#Measure_gram",
                    "label": "Gram",
                    "weight": 1.0
                },
                {
                    "uri": "http://www.edamam.com/ontologies/edamam.owl#Measure_ounce",
                    "label": "Ounce",
                    "weight": 28.349523125
                },
                {
                    "uri": "http://www.edamam.com/ontologies/edamam.owl#Measure_pound",
                    "label": "Pound",
                    "weight": 453.59237
                },
                {
                    "uri": "http://www.edamam.com/ontologies/edamam.owl#Measure_kilogram",
                    "label": "Kilogram",
                    "weight": 1000.0
                }
            ]
        },
        {
            "food": {
                "foodId": "food_bzfff0wa04mtuwbrqtw2fb25anr0",
                "label": "Spices, Thyme, Dried",
                "knownAs": "Spices, thyme, dried",
                "nutrients": {
                    "ENERC_KCAL": 276.0,
                    "PROCNT": 9.11,
                    "FAT": 7.43,
                    "CHOCDF": 63.9,
                    "FIBTG": 37.0
                },
                "category": "Generic foods",
                "categoryLabel": "food",
                "image": "https://www.edamam.com/food-img/89b/89b37a04e46e052671d73addcb84aa51.jpg"
            },
            "measures": [
                {
                    "uri": "http://www.edamam.com/ontologies/edamam.owl#Measure_tablespoon",
                    "label": "Tablespoon",
                    "weight": 2.7,
                    "qualified": [
                        {
                            "qualifiers": [
                                {
                                    "uri": "http://www.edamam.com/ontologies/edamam.owl#Qualifier_ground",
                                    "label": "ground"
                                }
                            ],
                            "weight": 4.3
                        }
                    ]
                },
                {
                    "uri": "http://www.edamam.com/ontologies/edamam.owl#Measure_serving",
                    "label": "Serving",
                    "weight": 2.7
                },
                {
                    "uri": "http://www.edamam.com/ontologies/edamam.owl#Measure_teaspoon",
                    "label": "Teaspoon",
                    "weight": 1.0,
                    "qualified": [
                        {
                            "qualifiers": [
                                {
                                    "uri": "http://www.edamam.com/ontologies/edamam.owl#Qualifier_ground",
                                    "label": "ground"
                                }
                            ],
                            "weight": 1.4
                        }
                    ]
                },
                {
                    "uri": "http://www.edamam.com/ontologies/edamam.owl#Measure_unit",
                    "label": "Whole",
                    "weight": 7.2
                },
                {
                    "uri": "http://www.edamam.com/ontologies/edamam.owl#Measure_ounce",
                    "label": "Ounce",
                    "weight": 28.349523125
                },
                {
                    "uri": "http://www.edamam.com/ontologies/edamam.owl#Measure_gram",
                    "label": "Gram",
                    "weight": 1.0
                },
                {
                    "uri": "http://www.edamam.com/ontologies/edamam.owl#Measure_handful",
                    "label": "Handful",
                    "weight": 5.4
                },
                {
                    "uri": "http://www.edamam.com/ontologies/edamam.owl#Measure_bunch",
                    "label": "Bunch",
                    "weight": 7.2
                },
                {
                    "uri": "http://www.edamam.com/ontologies/edamam.owl#Measure_pound",
                    "label": "Pound",
                    "weight": 453.59237
                },
                {
                    "uri": "http://www.edamam.com/ontologies/edamam.owl#Measure_kilogram",
                    "label": "Kilogram",
                    "weight": 1000.0
                },
                {
                    "uri": "http://www.edamam.com/ontologies/edamam.owl#Measure_default",
                    "weight": 0.01
                }
            ]
        },
        {
            "food": {
                "foodId": "food_bxpja0fa3cy848ajclw7eazkaer0",
                "label": "Spices, Turmeric, Ground",
                "knownAs": "Spices, turmeric, ground",
                "nutrients": {
                    "ENERC_KCAL": 312.0,
                    "PROCNT": 9.68,
                    "FAT": 3.25,
                    "CHOCDF": 67.1,
                    "FIBTG": 22.7
                },
                "category": "Generic foods",
                "categoryLabel": "food",
                "image": "https://www.edamam.com/food-img/03e/03eb469286b3caf1ae9c13e4eba13587.jpg"
            },
            "measures": [
                {
                    "uri": "http://www.edamam.com/ontologies/edamam.owl#Measure_teaspoon",
                    "label": "Teaspoon",
                    "weight": 3.0
                },
                {
                    "uri": "http://www.edamam.com/ontologies/edamam.owl#Measure_serving",
                    "label": "Serving",
                    "weight": 3.0
                },
                {
                    "uri": "http://www.edamam.com/ontologies/edamam.owl#Measure_tablespoon",
                    "label": "Tablespoon",
                    "weight": 9.4
                },
                {
                    "uri": "http://www.edamam.com/ontologies/edamam.owl#Measure_gram",
                    "label": "Gram",
                    "weight": 1.0
                },
                {
                    "uri": "http://www.edamam.com/ontologies/edamam.owl#Measure_ounce",
                    "label": "Ounce",
                    "weight": 28.349523125
                },
                {
                    "uri": "http://www.edamam.com/ontologies/edamam.owl#Measure_pound",
                    "label": "Pound",
                    "weight": 453.59237
                },
                {
                    "uri": "http://www.edamam.com/ontologies/edamam.owl#Measure_kilogram",
                    "label": "Kilogram",
                    "weight": 1000.0
                }
            ]
        },
        {
            "food": {
                "foodId": "food_auhuy65ajvdldlblco27majb617u",
                "label": "Basil, Fresh",
                "knownAs": "Basil, fresh",
                "nutrients": {
                    "ENERC_KCAL": 23.0,
                    "PROCNT": 3.15,
                    "FAT": 0.64,
                    "CHOCDF": 2.65,
                    "FIBTG": 1.6
                },
                "category": "Generic foods",
                "categoryLabel": "food",
                "image": "https://www.edamam.com/food-img/5f1/5f1b05685ac2b404236a5d1c1f3c8c10.jpg"
            },
            "measures": [
                {
                    "uri": "http://www.edamam.com/ontologies/edamam.owl#Measure_serving",
                    "label": "Serving",
                    "weight": 5.0
                },
                {
                    "uri": "http://www.edamam.com/ontologies/edamam.owl#Measure_cup",
                    "label": "Cup",
                    "weight": 24.0
                },
                {
                    "uri": "http://www.edamam.com/ontologies/edamam.owl#Measure_tablespoon",
                    "label": "Tablespoon",
                    "weight": 2.65,
                    "qualified": [
                        {
                            "qualifiers": [
                                {
                                    "uri": "http://www.edamam.com/ontologies/edamam.owl#Qualifier_chopped",
                                    "label": "chopped"
                                }
                            ],
                            "weight": 2.65
                        }
                    ]
                },
                {
                    "uri": "http://www.edamam.com/ontologies/edamam.owl#Measure_leaf",
                    "label": "Leaf",
                    "weight": 0.5
                },
                {
                    "uri": "http://www.edamam.com/ontologies/edamam.owl#Measure_handful",
                    "label": "Handful",
                    "weight": 3.0
                },
                {
                    "uri": "http://www.edamam.com/ontologies/edamam.owl#Measure_bunch",
                    "label": "Bunch",
                    "weight": 50.0
                },
                {
                    "uri": "http://www.edamam.com/ontologies/edamam.owl#Measure_sprig",
                    "label": "Sprig",
                    "weight": 2.0
                },
                {
                    "uri": "http://www.edamam.com/ontologies/edamam.owl#Measure_ounce",
                    "label": "Ounce",
                    "weight": 28.349523125
                },
                {
                    "uri": "http://www.edamam.com/ontologies/edamam.owl#Measure_unit",
                    "label": "Whole",
                    "weight": 2.0
                },
                {
                    "uri": "http://www.edamam.com/ontologies/edamam.owl#Measure_gram",
                    "label": "Gram",
                    "weight": 1.0
                },
                {
                    "uri": "http://www.edamam.com/ontologies/edamam.owl#Measure_stem",
                    "label": "Stem",
                    "weight": 2.0
                },
                {
                    "uri": "http://www.edamam.com/ontologies/edamam.owl#Measure_pound",
                    "label": "Pound",
                    "weight": 453.59237
                },
                {
                    "uri": "http://www.edamam.com/ontologies/edamam.owl#Measure_kilogram",
                    "label": "Kilogram",
                    "weight": 1000.0
                }
            ]
        },
        {
            "food": {
                "foodId": "food_auwtem5awvor59bcurfl0am78c2i",
                "label": "Dill Weed, Fresh",
                "knownAs": "Dill weed, fresh",
                "nutrients": {
                    "ENERC_KCAL": 43.0,
                    "PROCNT": 3.46,
                    "FAT": 1.12,
                    "CHOCDF": 7.02,
                    "FIBTG": 2.1
                },
                "category": "Generic foods",
                "categoryLabel": "food",
                "image": "https://www.edamam.com/food-img/874/8740aacb8e1a348cd5eead1f0bb552d4.jpg"
            },
            "measures": [
                {
                    "uri": "http://www.edamam.com/ontologies/edamam.owl#Measure_serving",
                    "label": "Serving",
                    "weight": 2.0
                },
                {
                    "uri": "http://www.edamam.com/ontologies/edamam.owl#Measure_tablespoon",
                    "label": "Tablespoon",
                    "weight": 0.55625
                },
                {
                    "uri": "http://www.edamam.com/ontologies/edamam.owl#Measure_cup",
                    "label": "Cup",
                    "weight": 8.9
                },
                {
                    "uri": "http://www.edamam.com/ontologies/edamam.owl#Measure_teaspoon",
                    "label": "Teaspoon",
                    "weight": 0.185416667
                },
                {
                    "uri": "http://www.edamam.com/ontologies/edamam.owl#Measure_sprig",
                    "label": "Sprig",
                    "weight": 0.2
                },
                {
                    "uri": "http://www.edamam.com/ontologies/edamam.owl#Measure_bunch",
                    "label": "Bunch",
                    "weight": 2.4
                },
                {
                    "uri": "http://www.edamam.com/ontologies/edamam.owl#Measure_unit",
                    "label": "Whole",
                    "weight": 2.4
                },
                {
                    "uri": "http://www.edamam.com/ontologies/edamam.owl#Measure_gram",
                    "label": "Gram",
                    "weight": 1.0
                },
                {
                    "uri": "http://www.edamam.com/ontologies/edamam.owl#Measure_ounce",
                    "label": "Ounce",
                    "weight": 28.349523125
                },
                {
                    "uri": "http://www.edamam.com/ontologies/edamam.owl#Measure_branch",
                    "label": "Branch",
                    "weight": 2.4
                },
                {
                    "uri": "http://www.edamam.com/ontologies/edamam.owl#Measure_pound",
                    "label": "Pound",
                    "weight": 453.59237
                },
                {
                    "uri": "http://www.edamam.com/ontologies/edamam.owl#Measure_kilogram",
                    "label": "Kilogram",
                    "weight": 1000.0
                }
            ]
        },
        {
            "food": {
                "foodId": "food_bu6t08oa7et2psaz0c3jpb5vxshe",
                "label": "Mustard, Prepared, Yellow",
                "knownAs": "Mustard, prepared, yellow",
                "nutrients": {
                    "ENERC_KCAL": 60.0,
                    "PROCNT": 3.74,
                    "FAT": 3.34,
                    "CHOCDF": 5.83,
                    "FIBTG": 4.0
                },
                "category": "Generic foods",
                "categoryLabel": "food",
                "image": "https://www.edamam.com/food-img/e23/e238f2e4cfa6aa1a30f46dc73e7344eb.jpg"
            },
            "measures": [
                {
                    "uri": "http://www.edamam.com/ontologies/edamam.owl#Measure_serving",
                    "label": "Serving",
                    "weight": 30.0
                },
                {
                    "uri": "http://www.edamam.com/ontologies/edamam.owl#Measure_tablespoon",
                    "label": "Tablespoon",
                    "weight": 15.5625
                },
                {
                    "uri": "http://www.edamam.com/ontologies/edamam.owl#Measure_teaspoon",
                    "label": "Teaspoon",
                    "weight": 5.0
                },
                {
                    "uri": "http://www.edamam.com/ontologies/edamam.owl#Measure_cup",
                    "label": "Cup",
                    "weight": 249.0
                },
                {
                    "uri": "http://www.edamam.com/ontologies/edamam.owl#Measure_ounce",
                    "label": "Ounce",
                    "weight": 28.349523125
                },
                {
                    "uri": "http://www.edamam.com/ontologies/edamam.owl#Measure_gram",
                    "label": "Gram",
                    "weight": 1.0
                },
                {
                    "uri": "http://www.edamam.com/ontologies/edamam.owl#Measure_pound",
                    "label": "Pound",
                    "weight": 453.59237
                },
                {
                    "uri": "http://www.edamam.com/ontologies/edamam.owl#Measure_kilogram",
                    "label": "Kilogram",
                    "weight": 1000.0
                },
                {
                    "uri": "http://www.edamam.com/ontologies/edamam.owl#Measure_default",
                    "weight": 0.015
                }
            ]
        },
        {
            "food": {
                "foodId": "food_ao39it5bbjzx9xaha3zd7bkwrzkk",
                "label": "Salt, Table",
                "knownAs": "Salt, table",
                "nutrients": {
                    "ENERC_KCAL": 0.0,
                    "PROCNT": 0.0,
                    "FAT": 0.0,
                    "CHOCDF": 0.0,
                    "FIBTG": 0.0
                },
                "category": "Generic foods",
                "categoryLabel": "food",
                "image": "https://www.edamam.com/food-img/694/6943ea510918c6025795e8dc6e6eaaeb.jpg"
            },
            "measures": [
                {
                    "uri": "http://www.edamam.com/ontologies/edamam.owl#Measure_teaspoon",
                    "label": "Teaspoon",
                    "weight": 6.0
                },
                {
                    "uri": "http://www.edamam.com/ontologies/edamam.owl#Measure_serving",
                    "label": "Serving",
                    "weight": 6.0
                },
                {
                    "uri": "http://www.edamam.com/ontologies/edamam.owl#Measure_pinch",
                    "label": "Pinch",
                    "weight": 0.380208334
                },
                {
                    "uri": "http://www.edamam.com/ontologies/edamam.owl#Measure_tablespoon",
                    "label": "Tablespoon",
                    "weight": 18.0
                },
                {
                    "uri": "http://www.edamam.com/ontologies/edamam.owl#Measure_dash",
                    "label": "Dash",
                    "weight": 0.4
                },
                {
                    "uri": "http://www.edamam.com/ontologies/edamam.owl#Measure_gram",
                    "label": "Gram",
                    "weight": 1.0
                },
                {
                    "uri": "http://www.edamam.com/ontologies/edamam.owl#Measure_cup",
                    "label": "Cup",
                    "weight": 292.0
                },
                {
                    "uri": "http://www.edamam.com/ontologies/edamam.owl#Measure_ounce",
                    "label": "Ounce",
                    "weight": 28.349523125
                },
                {
                    "uri": "http://www.edamam.com/ontologies/edamam.owl#Measure_pound",
                    "label": "Pound",
                    "weight": 453.59237
                },
                {
                    "uri": "http://www.edamam.com/ontologies/edamam.owl#Measure_kilogram",
                    "label": "Kilogram",
                    "weight": 1000.0
                },
                {
                    "uri": "http://www.edamam.com/ontologies/edamam.owl#Measure_default",
                    "weight": 0.006
                }
            ]
        },
        {
            "food": {
                "foodId": "food_bfauivvbgpdbp6adygdygbhgxkbt",
                "label": "Vinegar, Cider",
                "knownAs": "Vinegar, cider",
                "nutrients": {
                    "ENERC_KCAL": 21.0,
                    "PROCNT": 0.0,
                    "FAT": 0.0,
                    "CHOCDF": 0.93,
                    "FIBTG": 0.0
                },
                "category": "Generic foods",
                "categoryLabel": "food",
                "image": "https://www.edamam.com/food-img/c7d/c7dbd1846c5d08e9739930d70a404d50.jpg"
            },
            "measures": [
                {
                    "uri": "http://www.edamam.com/ontologies/edamam.owl#Measure_teaspoon",
                    "label": "Teaspoon",
                    "weight": 5.0
                },
                {
                    "uri": "http://www.edamam.com/ontologies/edamam.owl#Measure_serving",
                    "label": "Serving",
                    "weight": 5.0
                },
                {
                    "uri": "http://www.edamam.com/ontologies/edamam.owl#Measure_tablespoon",
                    "label": "Tablespoon",
                    "weight": 14.9
                },
                {
                    "uri": "http://www.edamam.com/ontologies/edamam.owl#Measure_cup",
                    "label": "Cup",
                    "weight": 239.0
                },
                {
                    "uri": "http://www.edamam.com/ontologies/edamam.owl#Measure_unit",
                    "label": "Whole",
                    "weight": 15.0
                },
                {
                    "uri": "http://www.edamam.com/ontologies/edamam.owl#Measure_ounce",
                    "label": "Ounce",
                    "weight": 28.349523125
                },
                {
                    "uri": "http://www.edamam.com/ontologies/edamam.owl#Measure_gram",
                    "label": "Gram",
                    "weight": 1.0
                },
                {
                    "uri": "http://www.edamam.com/ontologies/edamam.owl#Measure_splash",
                    "label": "Splash",
                    "weight": 15.0
                },
                {
                    "uri": "http://www.edamam.com/ontologies/edamam.owl#Measure_pound",
                    "label": "Pound",
                    "weight": 453.59237
                },
                {
                    "uri": "http://www.edamam.com/ontologies/edamam.owl#Measure_kilogram",
                    "label": "Kilogram",
                    "weight": 1000.0
                }
            ]
        },
        {
            "food": {
                "foodId": "food_b8cuidzbtki47zb3niohlbttmye2",
                "label": "Thyme, Fresh",
                "knownAs": "Thyme, fresh",
                "nutrients": {
                    "ENERC_KCAL": 101.0,
                    "PROCNT": 5.56,
                    "FAT": 1.68,
                    "CHOCDF": 24.4,
                    "FIBTG": 14.0
                },
                "category": "Generic foods",
                "categoryLabel": "food",
                "image": "https://www.edamam.com/food-img/3e7/3e7cf3c8d767a90b906447f5e74059f7.jpg"
            },
            "measures": [
                {
                    "uri": "http://www.edamam.com/ontologies/edamam.owl#Measure_serving",
                    "label": "Serving",
                    "weight": 5.0
                },
                {
                    "uri": "http://www.edamam.com/ontologies/edamam.owl#Measure_teaspoon",
                    "label": "Teaspoon",
                    "weight": 0.8
                },
                {
                    "uri": "http://www.edamam.com/ontologies/edamam.owl#Measure_sprig",
                    "label": "Sprig",
                    "weight": 3.0
                },
                {
                    "uri": "http://www.edamam.com/ontologies/edamam.owl#Measure_unit",
                    "label": "Whole",
                    "weight": 3.0,
                    "qualified": [
                        {
                            "qualifiers": [
                                {
                                    "uri": "http://www.edamam.com/ontologies/edamam.owl#Qualifier_large",
                                    "label": "large"
                                }
                            ],
                            "weight": 4.0
                        },
                        {
                            "qualifiers": [
                                {
                                    "uri": "http://www.edamam.com/ontologies/edamam.owl#Qualifier_small",
                                    "label": "small"
                                }
                            ],
                            "weight": 2.0
                        }
                    ]
                },
                {
                    "uri": "http://www.edamam.com/ontologies/edamam.owl#Measure_bunch",
                    "label": "Bunch",
                    "weight": 15.0
                },
                {
                    "uri": "http://www.edamam.com/ontologies/edamam.owl#Measure_handful",
                    "label": "Handful",
                    "weight": 4.8
                },
                {
                    "uri": "http://www.edamam.com/ontologies/edamam.owl#Measure_stem",
                    "label": "Stem",
                    "weight": 3.0
                },
                {
                    "uri": "http://www.edamam.com/ontologies/edamam.owl#Measure_gram",
                    "label": "Gram",
                    "weight": 1.0
                },
                {
                    "uri": "http://www.edamam.com/ontologies/edamam.owl#Measure_branch",
                    "label": "Branch",
                    "weight": 3.0
                },
                {
                    "uri": "http://www.edamam.com/ontologies/edamam.owl#Measure_ounce",
                    "label": "Ounce",
                    "weight": 28.349523125
                },
                {
                    "uri": "http://www.edamam.com/ontologies/edamam.owl#Measure_twig",
                    "label": "Twig",
                    "weight": 3.0
                },
                {
                    "uri": "http://www.edamam.com/ontologies/edamam.owl#Measure_pound",
                    "label": "Pound",
                    "weight": 453.59237
                },
                {
                    "uri": "http://www.edamam.com/ontologies/edamam.owl#Measure_kilogram",
                    "label": "Kilogram",
                    "weight": 1000.0
                },
                {
                    "uri": "http://www.edamam.com/ontologies/edamam.owl#Measure_default",
                    "weight": 0.01
                }
            ]
        },
        {
            "food": {
                "foodId": "food_ar3qaauac8vb1bbmt3vtybctl0jj",
                "label": "Vanilla Extract",
                "knownAs": "Vanilla extract",
                "nutrients": {
                    "ENERC_KCAL": 288.0,
                    "PROCNT": 0.06,
                    "FAT": 0.06,
                    "CHOCDF": 12.6,
                    "FIBTG": 0.0
                },
                "category": "Generic foods",
                "categoryLabel": "food",
                "image": "https://www.edamam.com/food-img/90f/90f910b0bf82750d4f6528263e014cca.jpg"
            },
            "measures": [
                {
                    "uri": "http://www.edamam.com/ontologies/edamam.owl#Measure_gram",
                    "label": "Gram",
                    "weight": 1.0
                },
                {
                    "uri": "http://www.edamam.com/ontologies/edamam.owl#Measure_serving",
                    "label": "Serving",
                    "weight": 1.0
                },
                {
                    "uri": "http://www.edamam.com/ontologies/edamam.owl#Measure_teaspoon",
                    "label": "Teaspoon",
                    "weight": 4.2
                },
                {
                    "uri": "http://www.edamam.com/ontologies/edamam.owl#Measure_tablespoon",
                    "label": "Tablespoon",
                    "weight": 13.0
                },
                {
                    "uri": "http://www.edamam.com/ontologies/edamam.owl#Measure_unit",
                    "label": "Whole",
                    "weight": 5.0
                },
                {
                    "uri": "http://www.edamam.com/ontologies/edamam.owl#Measure_cup",
                    "label": "Cup",
                    "weight": 208.0
                },
                {
                    "uri": "http://www.edamam.com/ontologies/edamam.owl#Measure_drop",
                    "label": "Drop",
                    "weight": 0.054166667
                },
                {
                    "uri": "http://www.edamam.com/ontologies/edamam.owl#Measure_ounce",
                    "label": "Ounce",
                    "weight": 28.349523125
                },
                {
                    "uri": "http://www.edamam.com/ontologies/edamam.owl#Measure_piece",
                    "label": "Piece",
                    "weight": 5.0
                },
                {
                    "uri": "http://www.edamam.com/ontologies/edamam.owl#Measure_pound",
                    "label": "Pound",
                    "weight": 453.59237
                },
                {
                    "uri": "http://www.edamam.com/ontologies/edamam.owl#Measure_kilogram",
                    "label": "Kilogram",
                    "weight": 1000.0
                },
                {
                    "uri": "http://www.edamam.com/ontologies/edamam.owl#Measure_default",
                    "weight": 0.0042
                }
            ]
        },
        {
            "food": {
                "foodId": "food_aiqvrzvaw5tbhnb7x8c47alivamz",
                "label": "Vanilla Extract, Imitation, Alcohol",
                "knownAs": "Vanilla extract, imitation, alcohol",
                "nutrients": {
                    "ENERC_KCAL": 237.0,
                    "PROCNT": 0.05,
                    "FAT": 0.0,
                    "CHOCDF": 2.41,
                    "FIBTG": 0.0
                },
                "category": "Generic foods",
                "categoryLabel": "food",
                "servingSizes": [
                    {
                        "uri": "http://www.edamam.com/ontologies/edamam.owl#Measure_teaspoon",
                        "label": "Teaspoon",
                        "quantity": 1.0
                    },
                    {
                        "uri": "http://www.edamam.com/ontologies/edamam.owl#Measure_gram",
                        "label": "Gram",
                        "quantity": 4.2
                    }
                ]
            },
            "measures": [
                {
                    "uri": "http://www.edamam.com/ontologies/edamam.owl#Measure_serving",
                    "label": "Serving",
                    "weight": 4.2
                },
                {
                    "uri": "http://www.edamam.com/ontologies/edamam.owl#Measure_teaspoon",
                    "label": "Teaspoon",
                    "weight": 4.2
                },
                {
                    "uri": "http://www.edamam.com/ontologies/edamam.owl#Measure_gram",
                    "label": "Gram",
                    "weight": 1.0
                },
                {
                    "uri": "http://www.edamam.com/ontologies/edamam.owl#Measure_ounce",
                    "label": "Ounce",
                    "weight": 28.349523125
                },
                {
                    "uri": "http://www.edamam.com/ontologies/edamam.owl#Measure_pound",
                    "label": "Pound",
                    "weight": 453.59237
                },
                {
                    "uri": "http://www.edamam.com/ontologies/edamam.owl#Measure_kilogram",
                    "label": "Kilogram",
                    "weight": 1000.0
                },
                {
                    "uri": "http://www.edamam.com/ontologies/edamam.owl#Measure_tablespoon",
                    "label": "Tablespoon",
                    "weight": 13.0
                }
            ]
        },
        {
            "food": {
                "foodId": "food_bi49pvjai06bepb5cnt11bgolgmo",
                "label": "Vanilla Extract, Imitation, no Alcohol",
                "knownAs": "Vanilla extract, imitation, no alcohol",
                "nutrients": {
                    "ENERC_KCAL": 56.0,
                    "PROCNT": 0.03,
                    "FAT": 0.0,
                    "CHOCDF": 14.4,
                    "FIBTG": 0.0
                },
                "category": "Generic foods",
                "categoryLabel": "food",
                "image": "https://www.edamam.com/food-img/997/997250142cbb2a863f24cd7a8dcc17a1.jpg"
            },
            "measures": [
                {
                    "uri": "http://www.edamam.com/ontologies/edamam.owl#Measure_gram",
                    "label": "Gram",
                    "weight": 1.0
                },
                {
                    "uri": "http://www.edamam.com/ontologies/edamam.owl#Measure_ounce",
                    "label": "Ounce",
                    "weight": 28.349523125
                },
                {
                    "uri": "http://www.edamam.com/ontologies/edamam.owl#Measure_pound",
                    "label": "Pound",
                    "weight": 453.59237
                },
                {
                    "uri": "http://www.edamam.com/ontologies/edamam.owl#Measure_kilogram",
                    "label": "Kilogram",
                    "weight": 1000.0
                },
                {
                    "uri": "http://www.edamam.com/ontologies/edamam.owl#Measure_teaspoon",
                    "label": "Teaspoon",
                    "weight": 4.2
                },
                {
                    "uri": "http://www.edamam.com/ontologies/edamam.owl#Measure_tablespoon",
                    "label": "Tablespoon",
                    "weight": 13.0
                }
            ]
        },
        {
            "food": {
                "foodId": "food_a33nperayzov9yaumeffub5op8ft",
                "label": "Vinegar, Distilled",
                "knownAs": "Vinegar, distilled",
                "nutrients": {
                    "ENERC_KCAL": 18.0,
                    "PROCNT": 0.0,
                    "FAT": 0.0,
                    "CHOCDF": 0.04,
                    "FIBTG": 0.0
                },
                "category": "Generic foods",
                "categoryLabel": "food",
                "image": "https://www.edamam.com/food-img/5f6/5f69b84c399d778c4728e9ab4f8065a2.jpg"
            },
            "measures": [
                {
                    "uri": "http://www.edamam.com/ontologies/edamam.owl#Measure_teaspoon",
                    "label": "Teaspoon",
                    "weight": 5.0
                },
                {
                    "uri": "http://www.edamam.com/ontologies/edamam.owl#Measure_serving",
                    "label": "Serving",
                    "weight": 5.0
                },
                {
                    "uri": "http://www.edamam.com/ontologies/edamam.owl#Measure_tablespoon",
                    "label": "Tablespoon",
                    "weight": 14.9
                },
                {
                    "uri": "http://www.edamam.com/ontologies/edamam.owl#Measure_cup",
                    "label": "Cup",
                    "weight": 238.0
                },
                {
                    "uri": "http://www.edamam.com/ontologies/edamam.owl#Measure_unit",
                    "label": "Whole",
                    "weight": 15.0
                },
                {
                    "uri": "http://www.edamam.com/ontologies/edamam.owl#Measure_ounce",
                    "label": "Ounce",
                    "weight": 28.349523125
                },
                {
                    "uri": "http://www.edamam.com/ontologies/edamam.owl#Measure_splash",
                    "label": "Splash",
                    "weight": 15.0
                },
                {
                    "uri": "http://www.edamam.com/ontologies/edamam.owl#Measure_gram",
                    "label": "Gram",
                    "weight": 1.0
                },
                {
                    "uri": "http://www.edamam.com/ontologies/edamam.owl#Measure_pound",
                    "label": "Pound",
                    "weight": 453.59237
                },
                {
                    "uri": "http://www.edamam.com/ontologies/edamam.owl#Measure_kilogram",
                    "label": "Kilogram",
                    "weight": 1000.0
                }
            ]
        },
        {
            "food": {
                "foodId": "food_beuyex9b4bup8fb783etmb8kwl6v",
                "label": "Capers, Canned",
                "knownAs": "Capers, canned",
                "nutrients": {
                    "ENERC_KCAL": 23.0,
                    "PROCNT": 2.36,
                    "FAT": 0.86,
                    "CHOCDF": 4.89,
                    "FIBTG": 3.2
                },
                "category": "Generic foods",
                "categoryLabel": "food",
                "image": "https://www.edamam.com/food-img/627/627582f390a350d98c367f89c3a943fe.jpg"
            },
            "measures": [
                {
                    "uri": "http://www.edamam.com/ontologies/edamam.owl#Measure_tablespoon",
                    "label": "Tablespoon",
                    "weight": 8.6,
                    "qualified": [
                        {
                            "qualifiers": [
                                {
                                    "uri": "http://www.edamam.com/ontologies/edamam.owl#LanguaL_Z0219",
                                    "label": "DRAINED"
                                }
                            ],
                            "weight": 8.6
                        }
                    ]
                },
                {
                    "uri": "http://www.edamam.com/ontologies/edamam.owl#Measure_serving",
                    "label": "Serving",
                    "weight": 8.6
                },
                {
                    "uri": "http://www.edamam.com/ontologies/edamam.owl#Measure_ounce",
                    "label": "Ounce",
                    "weight": 28.349523125
                },
                {
                    "uri": "http://www.edamam.com/ontologies/edamam.owl#Measure_unit",
                    "label": "Whole",
                    "weight": 0.3
                },
                {
                    "uri": "http://www.edamam.com/ontologies/edamam.owl#Measure_gram",
                    "label": "Gram",
                    "weight": 1.0
                },
                {
                    "uri": "http://www.edamam.com/ontologies/edamam.owl#Measure_handful",
                    "label": "Handful",
                    "weight": 17.2
                },
                {
                    "uri": "http://www.edamam.com/ontologies/edamam.owl#Measure_caper",
                    "label": "Caper",
                    "weight": 0.3
                },
                {
                    "uri": "http://www.edamam.com/ontologies/edamam.owl#Measure_berry",
                    "label": "Berry",
                    "weight": 0.3
                },
                {
                    "uri": "http://www.edamam.com/ontologies/edamam.owl#Measure_can",
                    "label": "Can",
                    "weight": 258.0
                },
                {
                    "uri": "http://www.edamam.com/ontologies/edamam.owl#Measure_pound",
                    "label": "Pound",
                    "weight": 453.59237
                },
                {
                    "uri": "http://www.edamam.com/ontologies/edamam.owl#Measure_kilogram",
                    "label": "Kilogram",
                    "weight": 1000.0
                }
            ]
        },
        {
            "food": {
                "foodId": "food_bmclp5wayre2rzacc497dbji3aar",
                "label": "Horseradish, Prepared",
                "knownAs": "Horseradish, prepared",
                "nutrients": {
                    "ENERC_KCAL": 48.0,
                    "PROCNT": 1.18,
                    "FAT": 0.69,
                    "CHOCDF": 11.3,
                    "FIBTG": 3.3
                },
                "category": "Generic foods",
                "categoryLabel": "food",
                "image": "https://www.edamam.com/food-img/cc8/cc83e12eb36bdcc3015201c1cfac8656.jpg"
            },
            "measures": [
                {
                    "uri": "http://www.edamam.com/ontologies/edamam.owl#Measure_tablespoon",
                    "label": "Tablespoon",
                    "weight": 15.0
                },
                {
                    "uri": "http://www.edamam.com/ontologies/edamam.owl#Measure_unit",
                    "label": "Whole",
                    "weight": 15.0
                },
                {
                    "uri": "http://www.edamam.com/ontologies/edamam.owl#Measure_piece",
                    "label": "Piece",
                    "weight": 15.0
                },
                {
                    "uri": "http://www.edamam.com/ontologies/edamam.owl#Measure_slice",
                    "label": "Slice",
                    "weight": 15.0
                },
                {
                    "uri": "http://www.edamam.com/ontologies/edamam.owl#Measure_serving",
                    "label": "Serving",
                    "weight": 15.0
                },
                {
                    "uri": "http://www.edamam.com/ontologies/edamam.owl#Measure_teaspoon",
                    "label": "Teaspoon",
                    "weight": 5.0
                },
                {
                    "uri": "http://www.edamam.com/ontologies/edamam.owl#Measure_ounce",
                    "label": "Ounce",
                    "weight": 28.349523125
                },
                {
                    "uri": "http://www.edamam.com/ontologies/edamam.owl#Measure_gram",
                    "label": "Gram",
                    "weight": 1.0
                },
                {
                    "uri": "http://www.edamam.com/ontologies/edamam.owl#Measure_pound",
                    "label": "Pound",
                    "weight": 453.59237
                },
                {
                    "uri": "http://www.edamam.com/ontologies/edamam.owl#Measure_knob",
                    "label": "Knob",
                    "weight": 60.0
                },
                {
                    "uri": "http://www.edamam.com/ontologies/edamam.owl#Measure_kilogram",
                    "label": "Kilogram",
                    "weight": 1000.0
                }
            ]
        },
        {
            "food": {
                "foodId": "food_bnbincebqe305mbv9jeh8av041u5",
                "label": "Rosemary, Fresh",
                "knownAs": "Rosemary, fresh",
                "nutrients": {
                    "ENERC_KCAL": 131.0,
                    "PROCNT": 3.31,
                    "FAT": 5.86,
                    "CHOCDF": 20.7,
                    "FIBTG": 14.1
                },
                "category": "Generic foods",
                "categoryLabel": "food",
                "image": "https://www.edamam.com/food-img/0ac/0ac8f7cf6f2d0ad7b1a2f9900fae44f3.jpg"
            },
            "measures": [
                {
                    "uri": "http://www.edamam.com/ontologies/edamam.owl#Measure_serving",
                    "label": "Serving",
                    "weight": 2.0
                },
                {
                    "uri": "http://www.edamam.com/ontologies/edamam.owl#Measure_teaspoon",
                    "label": "Teaspoon",
                    "weight": 0.7
                },
                {
                    "uri": "http://www.edamam.com/ontologies/edamam.owl#Measure_tablespoon",
                    "label": "Tablespoon",
                    "weight": 1.7
                },
                {
                    "uri": "http://www.edamam.com/ontologies/edamam.owl#Measure_sprig",
                    "label": "Sprig",
                    "weight": 5.0
                },
                {
                    "uri": "http://www.edamam.com/ontologies/edamam.owl#Measure_unit",
                    "label": "Whole",
                    "weight": 5.0
                },
                {
                    "uri": "http://www.edamam.com/ontologies/edamam.owl#Measure_bunch",
                    "label": "Bunch",
                    "weight": 15.0
                },
                {
                    "uri": "http://www.edamam.com/ontologies/edamam.owl#Measure_branch",
                    "label": "Branch",
                    "weight": 5.0
                },
                {
                    "uri": "http://www.edamam.com/ontologies/edamam.owl#Measure_gram",
                    "label": "Gram",
                    "weight": 1.0
                },
                {
                    "uri": "http://www.edamam.com/ontologies/edamam.owl#Measure_ounce",
                    "label": "Ounce",
                    "weight": 28.349523125
                },
                {
                    "uri": "http://www.edamam.com/ontologies/edamam.owl#Measure_stick",
                    "label": "Stick",
                    "weight": 5.0
                },
                {
                    "uri": "http://www.edamam.com/ontologies/edamam.owl#Measure_pound",
                    "label": "Pound",
                    "weight": 453.59237
                },
                {
                    "uri": "http://www.edamam.com/ontologies/edamam.owl#Measure_kilogram",
                    "label": "Kilogram",
                    "weight": 1000.0
                }
            ]
        },
        {
            "food": {
                "foodId": "food_bvpivy9bq0a95pbuk4696az1ngvj",
                "label": "Peppermint, Fresh",
                "knownAs": "Peppermint, fresh",
                "nutrients": {
                    "ENERC_KCAL": 70.0,
                    "PROCNT": 3.75,
                    "FAT": 0.94,
                    "CHOCDF": 14.9,
                    "FIBTG": 8.0
                },
                "category": "Generic foods",
                "categoryLabel": "food",
                "image": "https://www.edamam.com/food-img/fc1/fc1b9eea517ee139e9580908530124b0.jpg"
            },
            "measures": [
                {
                    "uri": "http://www.edamam.com/ontologies/edamam.owl#Measure_serving",
                    "label": "Serving",
                    "weight": 3.0
                },
                {
                    "uri": "http://www.edamam.com/ontologies/edamam.owl#Measure_tablespoon",
                    "label": "Tablespoon",
                    "weight": 1.6
                },
                {
                    "uri": "http://www.edamam.com/ontologies/edamam.owl#Measure_cup",
                    "label": "Cup",
                    "weight": 25.6
                },
                {
                    "uri": "http://www.edamam.com/ontologies/edamam.owl#Measure_sprig",
                    "label": "Sprig",
                    "weight": 2.1
                },
                {
                    "uri": "http://www.edamam.com/ontologies/edamam.owl#Measure_bunch",
                    "label": "Bunch",
                    "weight": 12.8
                },
                {
                    "uri": "http://www.edamam.com/ontologies/edamam.owl#Measure_handful",
                    "label": "Handful",
                    "weight": 3.2
                },
                {
                    "uri": "http://www.edamam.com/ontologies/edamam.owl#Measure_leaf",
                    "label": "Leaf",
                    "weight": 0.05
                },
                {
                    "uri": "http://www.edamam.com/ontologies/edamam.owl#Measure_ounce",
                    "label": "Ounce",
                    "weight": 28.349523125
                },
                {
                    "uri": "http://www.edamam.com/ontologies/edamam.owl#Measure_gram",
                    "label": "Gram",
                    "weight": 1.0
                },
                {
                    "uri": "http://www.edamam.com/ontologies/edamam.owl#Measure_stem",
                    "label": "Stem",
                    "weight": 2.1
                },
                {
                    "uri": "http://www.edamam.com/ontologies/edamam.owl#Measure_pound",
                    "label": "Pound",
                    "weight": 453.59237
                },
                {
                    "uri": "http://www.edamam.com/ontologies/edamam.owl#Measure_branch",
                    "label": "Branch",
                    "weight": 2.1
                },
                {
                    "uri": "http://www.edamam.com/ontologies/edamam.owl#Measure_kilogram",
                    "label": "Kilogram",
                    "weight": 1000.0
                },
                {
                    "uri": "http://www.edamam.com/ontologies/edamam.owl#Measure_unit",
                    "label": "Whole",
                    "weight": 0.05
                },
                {
                    "uri": "http://www.edamam.com/ontologies/edamam.owl#Measure_mint",
                    "label": "Mint",
                    "weight": 0.05
                }
            ]
        },
        {
            "food": {
                "foodId": "food_bi9uv26bl26pu8by9pawcabyp5e8",
                "label": "Spearmint, Fresh",
                "knownAs": "Spearmint, fresh",
                "nutrients": {
                    "ENERC_KCAL": 44.0,
                    "PROCNT": 3.29,
                    "FAT": 0.73,
                    "CHOCDF": 8.41,
                    "FIBTG": 6.8
                },
                "category": "Generic foods",
                "categoryLabel": "food",
                "image": "https://www.edamam.com/food-img/7f0/7f01cc4f71c5c6ad31051ed74b9c058b.jpg"
            },
            "measures": [
                {
                    "uri": "http://www.edamam.com/ontologies/edamam.owl#Measure_serving",
                    "label": "Serving",
                    "weight": 3.0
                },
                {
                    "uri": "http://www.edamam.com/ontologies/edamam.owl#Measure_cup",
                    "label": "Cup",
                    "weight": 91.2
                },
                {
                    "uri": "http://www.edamam.com/ontologies/edamam.owl#Measure_tablespoon",
                    "label": "Tablespoon",
                    "weight": 5.7
                },
                {
                    "uri": "http://www.edamam.com/ontologies/edamam.owl#Measure_handful",
                    "label": "Handful",
                    "weight": 11.4
                },
                {
                    "uri": "http://www.edamam.com/ontologies/edamam.owl#Measure_bunch",
                    "label": "Bunch",
                    "weight": 30.0
                },
                {
                    "uri": "http://www.edamam.com/ontologies/edamam.owl#Measure_leaf",
                    "label": "Leaf",
                    "weight": 0.15
                },
                {
                    "uri": "http://www.edamam.com/ontologies/edamam.owl#Measure_sprig",
                    "label": "Sprig",
                    "weight": 2.0
                },
                {
                    "uri": "http://www.edamam.com/ontologies/edamam.owl#Measure_gram",
                    "label": "Gram",
                    "weight": 1.0
                },
                {
                    "uri": "http://www.edamam.com/ontologies/edamam.owl#Measure_ounce",
                    "label": "Ounce",
                    "weight": 28.349523125
                },
                {
                    "uri": "http://www.edamam.com/ontologies/edamam.owl#Measure_pound",
                    "label": "Pound",
                    "weight": 453.59237
                },
                {
                    "uri": "http://www.edamam.com/ontologies/edamam.owl#Measure_kilogram",
                    "label": "Kilogram",
                    "weight": 1000.0
                }
            ]
        }
    ],
    "_links": {
        "next": {
            "href": "https://api.edamam.com/api/food-database/v2/parser?session=CHcDEWgQYVVvFl8VSWdAH3BCcV9zSQ%3D%3D&app_id=65b8f7e0&app_key=fc225b1b6a6a93714b02e54b6c953467&ingr=",
            "title": "Next page"
        }
    }
}