{
    "text": "",
    "count": 10000,
    "parsed": [],
    "hints": [
        {
            "food": {
                "foodId": "food_bch92i7b4ht82tahjjtambmyc0ow",
                "label": "Cheese, Tilsit",
                "knownAs": "Cheese, tilsit",
                "nutrients": {
                    "ENERC_KCAL": 340.0,
                    "PROCNT": 24.4,
                    "FAT": 26.0,
                    "CHOCDF": 1.88,
                    "FIBTG": 0.0
                },
                "category": "Generic foods",
                "categoryLabel": "food",
                "image": "https://www.edamam.com/food-img/81d/81dbce807fcaeed38ec6e44f83cef2b6.jpg",
                "servingSizes": [
                    {
                        "uri": "http://www.edamam.com/ontologies/edamam.owl#Measure_ounce",
                        "label": "Ounce",
                        "quantity": 4.0
                    },
                    {
                        "uri": "http://www.edamam.com/ontologies/edamam.owl#Measure_gram",
                        "label": "Gram",
                        "quantity": 113.4
                    }
                ]
            },
            "measures": [
                {
                    "uri": "http://www.edamam.com/ontologies/edamam.owl#Measure_serving",
                    "label": "Serving",
                    "weight": 113.4
                },
                {
                    "uri": "http://www.edamam.com/ontologies/edamam.owl#Measure_ounce",
                    "label": "Ounce",
                    "weight": 28.349523125
                },
                {
                    "uri": "http://www.edamam.com/ontologies/edamam.owl#Measure_pound",
                    "label": "Pound",
                    "weight": 453.59237
                },
                {
                    "uri": "http://www.edamam.com/ontologies/edamam.owl#Measure_gram",
                    "label": "Gram",
                    "weight": 1.0
                },
                {
                    "uri": "http://www.edamam.com/ontologies/edamam.owl#Measure_package",
                    "label": "Package",
                    "weight": 170.0
                },
                {
                    "uri": "http://www.edamam.com/ontologies/edamam.owl#Measure_kilogram",
                    "label": "Kilogram",
                    "weight": 1000.0
                }
            ]
        },
        {
            "food": {
                "foodId": "food_at6xerhbd0t7jvbilo493a5aw2yz",
                "label": "Cheese, Pasteurized Process, American, Fortified With Vitamin d",
                "knownAs": "Cheese, pasteurized process, American, fortified with vitamin D",
                "nutrients": {
                    "ENERC_KCAL": 366.0,
                    "PROCNT": 18.1,
                    "FAT": 30.7,
                    "CHOCDF": 4.78,
                    "FIBTG": 0.0
                },
                "category": "Generic foods",
                "categoryLabel": "food",
                "image": "https://www.edamam.com/food-img/96d/96d4a59d5d33a98d893fece31d530a2c.jpg",
                "servingSizes": [
                    {
                        "uri": "http://www.edamam.com/ontologies/edamam.owl#Measure_slice",
                        "label": "Slice",
                        "quantity": 2.0
                    },
                    {
                        "uri": "http://www.edamam.com/ontologies/edamam.owl#Measure_gram",
                        "label": "Gram",
                        "quantity": 56.0
                    }
                ]
            },
            "measures": [
                {
                    "uri": "http://www.edamam.com/ontologies/edamam.owl#Measure_serving",
                    "label": "Serving",
                    "weight": 56.0
                },
                {
                    "uri": "http://www.edamam.com/ontologies/edamam.owl#Measure_slice",
                    "label": "Slice",
                    "weight": 28.0
                },
                {
                    "uri": "http://www.edamam.com/ontologies/edamam.owl#Measure_gram",
                    "label": "Gram",
                    "weight": 1.0
                },
                {
                    "uri": "http://www.edamam.com/ontologies/edamam.owl#Measure_ounce",
                    "label": "Ounce",
                    "weight": 28.349523125
                },
                {
                    "uri": "http://www.edamam.com/ontologies/edamam.owl#Measure_pound",
                    "label": "Pound",
                    "weight": 453.59237
                },
                {
                    "uri": "http://www.edamam.com/ontologies/edamam.owl#Measure_kilogram",
                    "label": "Kilogram",
                    "weight": 1000.0
                },
                {
                    "uri": "http://www.edamam.com/ontologies/edamam.owl#Measure_cup",
                    "label": "Cup",
                    "weight": 244.0,
                    "qualified": [
                        {
                            "qualifiers": [
                                {
                                    "uri": "http://www.edamam.com/ontologies/edamam.owl#Qualifier_melted",
                                    "label": "melted"
                                }
                            ],
                            "weight": 244.0
                        },
                        {
                            "qualifiers": [
                                {
                                    "uri": "http://www.edamam.com/ontologies/edamam.owl#Qualifier_shredded",
                                    "label": "shredded"
                                }
                            ],
                            "weight": 113.0
                        },
                        {
                            "qualifiers": [
                                {
                                    "uri": "http://www.edamam.com/ontologies/edamam.owl#Qualifier_diced",
                                    "label": "diced"
                                }
                            ],
                            "weight": 140.0
                        }
                    ]
                },
                {
                    "uri": "http://www.edamam.com/ontologies/edamam.owl#Measure_cubic_inch",
                    "label": "Cubic inch",
                    "weight": 18.0
                }
            ]
        },
        {
            "food": {
                "foodId": "food_aet1zzibxlwd9gawp2rjca1n08qv",
                "label": "Cheese, Pasteurized Process, Pimento",
                "knownAs": "Cheese, pasteurized process, pimento",
                "nutrients": {
                    "ENERC_KCAL": 375.0,
                    "PROCNT": 22.1,
                    "FAT": 31.2,
                    "CHOCDF": 1.73,
                    "FIBTG": 0.1
                },
                "category": "Generic foods",
                "categoryLabel": "food",
                "image": "https://www.edamam.com/food-img/ad1/ad1a89d5764f7f2825df3a613b666561.jpg"
            },
            "measures": [
                {
                    "uri": "http://www.edamam.com/ontologies/edamam.owl#Measure_serving",
                    "label": "Serving",
                    "weight": 42.0
                },
                {
                    "uri": "http://www.edamam.com/ontologies/edamam.owl#Measure_cup",
                    "label": "Cup",
                    "weight": 244.0,
                    "qualified": [
                        {
                            "qualifiers": [
                                {
                                    "uri": "http://www.edamam.com/ontologies/edamam.owl#Qualifier_melted",
                                    "label": "melted"
                                }
                            ],
                            "weight": 244.0
                        },
                        {
                            "qualifiers": [
                                {
                                    "uri": "http://www.edamam.com/ontologies/edamam.owl#Qualifier_diced",
                                    "label": "diced"
                                }
                            ],
                            "weight": 140.0
                        },
                        {
                            "qualifiers": [
                                {
                                    "uri": "http://www.edamam.com/ontologies/edamam.owl#Qualifier_shredded",
                                    "label": "shredded"
                                }
                            ],
                            "weight": 113.0
                        }
                    ]
                },
                {
                    "uri": "http://www.edamam.com/ontologies/edamam.owl#Measure_ounce",
                    "label": "Ounce",
                    "weight": 28.349523125
                },
                {
                    "uri": "http://www.edamam.com/ontologies/edamam.owl#Measure_unit",
                    "label": "Whole",
                    "weight": 21.0
                },
                {
                    "uri": "http://www.edamam.com/ontologies/edamam.owl#Measure_pound",
                    "label": "Pound",
                    "weight": 453.59237
                },
                {
                    "uri": "http://www.edamam.com/ontologies/edamam.owl#Measure_slice",
                    "label": "Slice",
                    "weight": 21.0
                },
                {
                    "uri": "http://www.edamam.com/ontologies/edamam.owl#Measure_gram",
                    "label": "Gram",
                    "weight": 1.0
                },
                {
                    "uri": "http://www.edamam.com/ontologies/edamam.owl#Measure_kilogram",
                    "label": "Kilogram",
                    "weight": 1000.0
                },
                {
                    "uri": "http://www.edamam.com/ontologies/edamam.owl#Measure_cubic_inch",
                    "label": "Cubic inch",
                    "weight": 18.0
                }
            ]
        },
        {
            "food": {
                "foodId": "food_bk5a4gzb0lnucfbzt0jsebbxw6go",
                "label": "Cheese, Pasteurized Process, Swiss",
                "knownAs": "Cheese, pasteurized process, swiss",
                "nutrients": {
                    "ENERC_KCAL": 334.0,
                    "PROCNT": 24.7,
                    "FAT": 25.0,
                    "CHOCDF": 2.1,
                    "FIBTG": 0.0
                },
                "category": "Generic foods",
                "categoryLabel": "food",
                "servingSizes": [
                    {
                        "uri": "http://www.edamam.com/ontologies/edamam.owl#Measure_slice",
                        "label": "Slice",
                        "quantity": 2.0
                    },
                    {
                        "uri": "http://www.edamam.com/ontologies/edamam.owl#Measure_gram",
                        "label": "Gram",
                        "quantity": 42.0
                    }
                ]
            },
            "measures": [
                {
                    "uri": "http://www.edamam.com/ontologies/edamam.owl#Measure_serving",
                    "label": "Serving",
                    "weight": 42.0
                },
                {
                    "uri": "http://www.edamam.com/ontologies/edamam.owl#Measure_slice",
                    "label": "Slice",
                    "weight": 21.0
                },
                {
                    "uri": "http://www.edamam.com/ontologies/edamam.owl#Measure_gram",
                    "label": "Gram",
                    "weight": 1.0
                },
                {
                    "uri": "http://www.edamam.com/ontologies/edamam.owl#Measure_ounce",
                    "label": "Ounce",
                    "weight": 28.349523125
                },
                {
                    "uri": "http://www.edamam.com/ontologies/edamam.owl#Measure_pound",
                    "label": "Pound",
                    "weight": 453.59237
                },
                {
                    "uri": "http://www.edamam.com/ontologies/edamam.owl#Measure_kilogram",
                    "label": "Kilogram",
                    "weight": 1000.0
                },
                {
                    "uri": "http://www.edamam.com/ontologies/edamam.owl#Measure_cup",
                    "label": "Cup",
                    "weight": 140.0,
                    "qualified": [
                        {
                            "qualifiers": [
                                {
                                    "uri": "http://www.edamam.com/ontologies/edamam.owl#Qualifier_shredded",
                                    "label": "shredded"
                                }
                            ],
                            "weight": 113.0
                        },
                        {
                            "qualifiers": [
                                {
                                    "uri": "http://www.edamam.com/ontologies/edamam.owl#Qualifier_diced",
                                    "label": "diced"
                                }
                            ],
                            "weight": 140.0
                        }
                    ]
                },
                {
                    "uri": "http://www.edamam.com/ontologies/edamam.owl#Measure_cubic_inch",
                    "label": "Cubic inch",
                    "weight": 18.0
                }
            ]
        },
        {
            "food": {
                "foodId": "food_biwfedtauelc2bbiwyjacb29l8ia",
                "label": "Cheese Food, Cold Pack, American",
                "knownAs": "Cheese food, cold pack, American",
                "nutrients": {
                    "ENERC_KCAL": 331.0,
                    "PROCNT": 19.7,
                    "FAT": 24.5,
                    "CHOCDF": 8.32,
                    "FIBTG": 0.0
                },
                "category": "Generic foods",
                "categoryLabel": "food",
                "image": "https://www.edamam.com/food-img/ea0/ea0c5a115d3e067852af1f1b0b10ada8.jpg",
                "servingSizes": [
                    {
                        "uri": "http://www.edamam.com/ontologies/edamam.owl#Measure_gram",
                        "label": "Gram",
                        "quantity": 42.0
                    },
                    {
                        "uri": "http://www.edamam.com/ontologies/edamam.owl#Measure_slice",
                        "label": "Slice",
                        "quantity": 2.0
                    }
                ]
            },
            "measures": [
                {
                    "uri": "http://www.edamam.com/ontologies/edamam.owl#Measure_serving",
                    "label": "Serving",
                    "weight": 42.0
                },
                {
                    "uri": "http://www.edamam.com/ontologies/edamam.owl#Measure_slice",
                    "label": "Slice",
                    "weight": 21.0
                },
                {
                    "uri": "http://www.edamam.com/ontologies/edamam.owl#Measure_ounce",
                    "label": "Ounce",
                    "weight": 28.349523125
                },
                {
                    "uri": "http://www.edamam.com/ontologies/edamam.owl#Measure_unit",
                    "label": "Whole",
                    "weight": 21.0
                },
                {
                    "uri": "http://www.edamam.com/ontologies/edamam.owl#Measure_pound",
                    "label": "Pound",
                    "weight": 453.59237
                },
                {
                    "uri": "http://www.edamam.com/ontologies/edamam.owl#Measure_piece",
                    "label": "Piece",
                    "weight": 21.0
                },
                {
                    "uri": "http://www.edamam.com/ontologies/edamam.owl#Measure_gram",
                    "label": "Gram",
                    "weight": 1.0
                },
                {
                    "uri": "http://www.edamam.com/ontologies/edamam.owl#Measure_package",
                    "label": "Package",
                    "weight": 227.0
                },
                {
                    "uri": "http://www.edamam.com/ontologies/edamam.owl#Measure_kilogram",
                    "label": "Kilogram",
                    "weight": 1000.0
                }
            ]
        },
        {
            "food": {
                "foodId": "food_brmtfrfa2ldrv5afsrlvrbm8wuto",
                "label": "Cheese Food, Pasteurized Process, American, Vitamin d Fortified",
                "knownAs": "Cheese food, pasteurized process, American, vitamin D fortified",
                "nutrients": {
                    "ENERC_KCAL": 330.0,
                    "PROCNT": 16.9,
                    "FAT": 25.6,
                    "CHOCDF": 8.56,
                    "FIBTG": 0.0
                },
                "category": "Generic foods",
                "categoryLabel": "food",
                "image": "https://www.edamam.com/food-img/50f/50fcc0b5d2faddb62f792faa1c42d650.jpg",
                "servingSizes": [
                    {
                        "uri": "http://www.edamam.com/ontologies/edamam.owl#Measure_gram",
                        "label": "Gram",
                        "quantity": 42.0
                    },
                    {
                        "uri": "http://www.edamam.com/ontologies/edamam.owl#Measure_slice",
                        "label": "Slice",
                        "quantity": 2.0
                    }
                ]
            },
            "measures": [
                {
                    "uri": "http://www.edamam.com/ontologies/edamam.owl#Measure_serving",
                    "label": "Serving",
                    "weight": 42.0
                },
                {
                    "uri": "http://www.edamam.com/ontologies/edamam.owl#Measure_slice",
                    "label": "Slice",
                    "weight": 21.0
                },
                {
                    "uri": "http://www.edamam.com/ontologies/edamam.owl#Measure_package",
                    "label": "Package",
                    "weight": 227.0
                },
                {
                    "uri": "http://www.edamam.com/ontologies/edamam.owl#Measure_gram",
                    "label": "Gram",
                    "weight": 1.0
                },
                {
                    "uri": "http://www.edamam.com/ontologies/edamam.owl#Measure_ounce",
                    "label": "Ounce",
                    "weight": 28.349523125
                },
                {
                    "uri": "http://www.edamam.com/ontologies/edamam.owl#Measure_pound",
                    "label": "Pound",
                    "weight": 453.59237
                },
                {
                    "uri": "http://www.edamam.com/ontologies/edamam.owl#Measure_kilogram",
                    "label": "Kilogram",
                    "weight": 1000.0
                },
                {
                    "uri": "http://www.edamam.com/ontologies/edamam.owl#Measure_cup",
                    "label": "Cup",
                    "weight": 113.0
                }
            ]
        },
        {
            "food": {
                "foodId": "food_buwhqfdbe4dromacyv2ujb8pfnoa",
                "label": "Cheese Food, Pasteurized Process, Swiss",
                "knownAs": "Cheese food, pasteurized process, swiss",
                "nutrients": {
                    "ENERC_KCAL": 323.0,
                    "PROCNT": 21.9,
                    "FAT": 24.1,
                    "CHOCDF": 4.5,
                    "FIBTG": 0.0
                },
                "category": "Generic foods",
                "categoryLabel": "food",
                "image": "https://www.edamam.com/food-img/c13/c13350dcd6127c0b914fa9534c613ec3.jpg",
                "servingSizes": [
                    {
                        "uri": "http://www.edamam.com/ontologies/edamam.owl#Measure_gram",
                        "label": "Gram",
                        "quantity": 56.7
                    },
                    {
                        "uri": "http://www.edamam.com/ontologies/edamam.owl#Measure_ounce",
                        "label": "Ounce",
                        "quantity": 2.0
                    }
                ]
            },
            "measures": [
                {
                    "uri": "http://www.edamam.com/ontologies/edamam.owl#Measure_serving",
                    "label": "Serving",
                    "weight": 56.7
                },
                {
                    "uri": "http://www.edamam.com/ontologies/edamam.owl#Measure_package",
                    "label": "Package",
                    "weight": 227.0
                },
                {
                    "uri": "http://www.edamam.com/ontologies/edamam.owl#Measure_gram",
                    "label": "Gram",
                    "weight": 1.0
                },
                {
                    "uri": "http://www.edamam.com/ontologies/edamam.owl#Measure_ounce",
                    "label": "Ounce",
                    "weight": 28.349523125
                },
                {
                    "uri": "http://www.edamam.com/ontologies/edamam.owl#Measure_pound",
                    "label": "Pound",
                    "weight": 453.59237
                },
                {
                    "uri": "http://www.edamam.com/ontologies/edamam.owl#Measure_kilogram",
                    "label": "Kilogram",
                    "weight": 1000.0
                }
            ]
        },
        {
            "food": {
                "foodId": "food_b7jzdeub3auu3na8htd2kbx7uiuv",
                "label": "Cheese Spread, Pasteurized Process, American",
                "knownAs": "Cheese spread, pasteurized process, American",
                "nutrients": {
                    "ENERC_KCAL": 290.0,
                    "PROCNT": 16.4,
                    "FAT": 21.2,
                    "CHOCDF": 8.73,
                    "FIBTG": 0.0
                },
                "category": "Generic foods",
                "categoryLabel": "food",
                "image": "https://www.edamam.com/food-img/c6e/c6e7825eb3766324e0970fb374b9cf52.jpg",
                "servingSizes": [
                    {
                        "uri": "http://www.edamam.com/ontologies/edamam.owl#Measure_jar",
                        "label": "Jar",
                        "quantity": 1.0
                    },
                    {
                        "uri": "http://www.edamam.com/ontologies/edamam.owl#Measure_gram",
                        "label": "Gram",
                        "quantity": 142.0
                    }
                ]
            },
            "measures": [
                {
                    "uri": "http://www.edamam.com/ontologies/edamam.owl#Measure_serving",
                    "label": "Serving",
                    "weight": 142.0
                },
                {
                    "uri": "http://www.edamam.com/ontologies/edamam.owl#Measure_slice",
                    "label": "Slice",
                    "weight": 34.0,
                    "qualified": [
                        {
                            "qualifiers": [
                                {
                                    "uri": "http://www.edamam.com/ontologies/edamam.owl#Qualifier_thin",
                                    "label": "thin"
                                }
                            ],
                            "weight": 14.0
                        }
                    ]
                },
                {
                    "uri": "http://www.edamam.com/ontologies/edamam.owl#Measure_jar",
                    "label": "Jar",
                    "weight": 128.0
                },
                {
                    "uri": "http://www.edamam.com/ontologies/edamam.owl#Measure_gram",
                    "label": "Gram",
                    "weight": 1.0
                },
                {
                    "uri": "http://www.edamam.com/ontologies/edamam.owl#Measure_ounce",
                    "label": "Ounce",
                    "weight": 28.349523125
                },
                {
                    "uri": "http://www.edamam.com/ontologies/edamam.owl#Measure_pound",
                    "label": "Pound",
                    "weight": 453.59237
                },
                {
                    "uri": "http://www.edamam.com/ontologies/edamam.owl#Measure_kilogram",
                    "label": "Kilogram",
                    "weight": 1000.0
                },
                {
                    "uri": "http://www.edamam.com/ontologies/edamam.owl#Measure_tablespoon",
                    "label": "Tablespoon",
                    "weight": 8.75
                },
                {
                    "uri": "http://www.edamam.com/ontologies/edamam.owl#Measure_cup",
                    "label": "Cup",
                    "weight": 244.0,
                    "qualified": [
                        {
                            "qualifiers": [
                                {
                                    "uri": "http://www.edamam.com/ontologies/edamam.owl#Qualifier_diced",
                                    "label": "diced"
                                }
                            ],
                            "weight": 140.0
                        }
                    ]
                },
                {
                    "uri": "http://www.edamam.com/ontologies/edamam.owl#Measure_cubic_inch",
                    "label": "Cubic inch",
                    "weight": 18.0
                }
            ]
        },
        {
            "food": {
                "foodId": "food_abkyat4b8cxkxrba01a62b8d1nwf",
                "label": "Cream, Fluid, Half and Half",
                "knownAs": "Cream, fluid, half and half",
                "nutrients": {
                    "ENERC_KCAL": 131.0,
                    "PROCNT": 3.13,
                    "FAT": 11.5,
                    "CHOCDF": 4.3,
                    "FIBTG": 0.0
                },
                "category": "Generic foods",
                "categoryLabel": "food",
                "image": "https://www.edamam.com/food-img/8f6/8f6397fd80a05aa12ee3b990737388a5.jpg"
            },
            "measures": [
                {
                    "uri": "http://www.edamam.com/ontologies/edamam.owl#Measure_serving",
                    "label": "Serving",
                    "weight": 30.0
                },
                {
                    "uri": "http://www.edamam.com/ontologies/edamam.owl#Measure_cup",
                    "label": "Cup",
                    "weight": 242.0
                },
                {
                    "uri": "http://www.edamam.com/ontologies/edamam.owl#Measure_tablespoon",
                    "label": "Tablespoon",
                    "weight": 15.0
                },
                {
                    "uri": "http://www.edamam.com/ontologies/edamam.owl#Measure_ounce",
                    "label": "Ounce",
                    "weight": 28.349523125
                },
                {
                    "uri": "http://www.edamam.com/ontologies/edamam.owl#Measure_gram",
                    "label": "Gram",
                    "weight": 1.0
                },
                {
                    "uri": "http://www.edamam.com/ontologies/edamam.owl#Measure_pound",
                    "label": "Pound",
                    "weight": 453.59237
                },
                {
                    "uri": "http://www.edamam.com/ontologies/edamam.owl#Measure_container",
                    "label": "Container",
                    "weight": 15.0
                },
                {
                    "uri": "http://www.edamam.com/ontologies/edamam.owl#Measure_kilogram",
                    "label": "Kilogram",
                    "weight": 1000.0
                },
                {
                    "uri": "http://www.edamam.com/ontologies/edamam.owl#Measure_fluid_ounce",
                    "label": "Fluid ounce",
                    "weight": 30.2
                }
            ]
        },
        {
            "food": {
                "foodId": "food_a4dpppzb1yw2whbltqn2lbjug84n",
                "label": "Cream, Fluid, Light (Coffee Cream or Table Cream)",
                "knownAs": "Cream, fluid, light (coffee cream or table cream)",
                "nutrients": {
                    "ENERC_KCAL": 195.0,
                    "PROCNT": 2.96,
                    "FAT": 19.1,
                    "CHOCDF": 3.66,
                    "FIBTG": 0.0
                },
                "category": "Generic foods",
                "categoryLabel": "food",
                "image": "https://www.edamam.com/food-img/8b8/8b82cff989fe1f9d1e07851a8c929f73.jpg"
            },
            "measures": [
                {
                    "uri": "http://www.edamam.com/ontologies/edamam.owl#Measure_serving",
                    "label": "Serving",
                    "weight": 60.0
                },
                {
                    "uri": "http://www.edamam.com/ontologies/edamam.owl#Measure_cup",
                    "label": "Cup",
                    "weight": 240.0
                },
                {
                    "uri": "http://www.edamam.com/ontologies/edamam.owl#Measure_tablespoon",
                    "label": "Tablespoon",
                    "weight": 15.0
                },
                {
                    "uri": "http://www.edamam.com/ontologies/edamam.owl#Measure_ounce",
                    "label": "Ounce",
                    "weight": 28.349523125
                },
                {
                    "uri": "http://www.edamam.com/ontologies/edamam.owl#Measure_fluid_ounce",
                    "label": "Fluid ounce",
                    "weight": 30.0
                },
                {
                    "uri": "http://www.edamam.com/ontologies/edamam.owl#Measure_gram",
                    "label": "Gram",
                    "weight": 1.0
                },
                {
                    "uri": "http://www.edamam.com/ontologies/edamam.owl#Measure_container",
                    "label": "Container",
                    "weight": 11.1
                },
                {
                    "uri": "http://www.edamam.com/ontologies/edamam.owl#Measure_pound",
                    "label": "Pound",
                    "weight": 453.59237
                },
                {
                    "uri": "http://www.edamam.com/ontologies/edamam.owl#Measure_kilogram",
                    "label": "Kilogram",
                    "weight": 1000.0
                }
            ]
        },
        {
            "food": {
                "foodId": "food_a1imhjnb3ld2k1awobj0ybzkcvdo",
                "label": "Cream, Fluid, Light Whipping",
                "knownAs": "Cream, fluid, light whipping",
                "nutrients": {
                    "ENERC_KCAL": 292.0,
                    "PROCNT": 2.17,
                    "FAT": 30.9,
                    "CHOCDF": 2.96,
                    "FIBTG": 0.0
                },
                "category": "Generic foods",
                "categoryLabel": "food",
                "image": "https://www.edamam.com/food-img/95c/95cc0b05cfb70cbdd2546504855f4bda.jpg"
            },
            "measures": [
                {
                    "uri": "http://www.edamam.com/ontologies/edamam.owl#Measure_serving",
                    "label": "Serving",
                    "weight": 30.0
                },
                {
                    "uri": "http://www.edamam.com/ontologies/edamam.owl#Measure_cup",
                    "label": "Cup",
                    "weight": 239.0,
                    "qualified": [
                        {
                            "qualifiers": [
                                {
                                    "uri": "http://www.edamam.com/ontologies/edamam.owl#LanguaL_H0358",
                                    "label": "AERATED BY WHIPPING"
                                }
                            ],
                            "weight": 120.0
                        }
                    ]
                },
                {
                    "uri": "http://www.edamam.com/ontologies/edamam.owl#Measure_tablespoon",
                    "label": "Tablespoon",
                    "weight": 15.0
                },
                {
                    "uri": "http://www.edamam.com/ontologies/edamam.owl#Measure_ounce",
                    "label": "Ounce",
                    "weight": 28.349523125
                },
                {
                    "uri": "http://www.edamam.com/ontologies/edamam.owl#Measure_gram",
                    "label": "Gram",
                    "weight": 1.0
                },
                {
                    "uri": "http://www.edamam.com/ontologies/edamam.owl#Measure_pound",
                    "label": "Pound",
                    "weight": 453.59237
                },
                {
                    "uri": "http://www.edamam.com/ontologies/edamam.owl#Measure_kilogram",
                    "label": "Kilogram",
                    "weight": 1000.0
                }
            ]
        },
        {
            "food": {
                "foodId": "food_amb9lrvawe0vcbatqpf3raxcosjt",
                "label": "Cream, Fluid, Heavy Whipping",
                "knownAs": "Cream, fluid, heavy whipping",
                "nutrients": {
                    "ENERC_KCAL": 340.0,
                    "PROCNT": 2.84,
                    "FAT": 36.1,
                    "CHOCDF": 2.84,
                    "FIBTG": 0.0
                },
                "category": "Generic foods",
                "categoryLabel": "food",
                "image": "https://www.edamam.com/food-img/484/4848d71f6a14dd5076083f5e17925420.jpg"
            },
            "measures": [
                {
                    "uri": "http://www.edamam.com/ontologies/edamam.owl#Measure_serving",
                    "label": "Serving",
                    "weight": 30.0
                },
                {
                    "uri": "http://www.edamam.com/ontologies/edamam.owl#Measure_cup",
                    "label": "Cup",
                    "weight": 238.0,
                    "qualified": [
                        {
                            "qualifiers": [
                                {
                                    "uri": "http://www.edamam.com/ontologies/edamam.owl#LanguaL_H0358",
                                    "label": "AERATED BY WHIPPING"
                                }
                            ],
                            "weight": 120.0
                        }
                    ]
                },
                {
                    "uri": "http://www.edamam.com/ontologies/edamam.owl#Measure_tablespoon",
                    "label": "Tablespoon",
                    "weight": 15.0
                },
                {
                    "uri": "http://www.edamam.com/ontologies/edamam.owl#Measure_ounce",
                    "label": "Ounce",
                    "weight": 28.349523125
                },
                {
                    "uri": "http://www.edamam.com/ontologies/edamam.owl#Measure_gram",
                    "label": "Gram",
                    "weight": 1.0
                },
                {
                    "uri": "http://www.edamam.com/ontologies/edamam.owl#Measure_fluid_ounce",
                    "label": "Fluid ounce",
                    "weight": 29.8
                },
                {
                    "uri": "http://www.edamam.com/ontologies/edamam.owl#Measure_carton",
                    "label": "Carton",
                    "weight": 238.0
                },
                {
                    "uri": "http://www.edamam.com/ontologies/edamam.owl#Measure_pound",
                    "label": "Pound",
                    "weight": 453.59237
                },
                {
                    "uri": "http://www.edamam.com/ontologies/edamam.owl#Measure_kilogram",
                    "label": "Kilogram",
                    "weight": 1000.0
                },
                {
                    "uri": "http://www.edamam.com/ontologies/edamam.owl#Measure_default",
                    "weight": 0.03
                }
            ]
        },
        {
            "food": {
                "foodId": "food_acodwkwbjkqxgeaojry8vbfee355",
                "label": "Cream, Whipped, Cream Topping, Pressurized",
                "knownAs": "Cream, whipped, cream topping, pressurized",
                "nutrients": {
                    "ENERC_KCAL": 257.0,
                    "PROCNT": 3.2,
                    "FAT": 22.2,
                    "CHOCDF": 12.5,
                    "FIBTG": 0.0
                },
                "category": "Generic foods",
                "categoryLabel": "food",
                "image": "https://www.edamam.com/food-img/971/971ade15670255c0af848062c607ab90.jpg"
            },
            "measures": [
                {
                    "uri": "http://www.edamam.com/ontologies/edamam.owl#Measure_serving",
                    "label": "Serving",
                    "weight": 23.0
                },
                {
                    "uri": "http://www.edamam.com/ontologies/edamam.owl#Measure_ounce",
                    "label": "Ounce",
                    "weight": 28.349523125
                },
                {
                    "uri": "http://www.edamam.com/ontologies/edamam.owl#Measure_cup",
                    "label": "Cup",
                    "weight": 60.0
                },
                {
                    "uri": "http://www.edamam.com/ontologies/edamam.owl#Measure_tablespoon",
                    "label": "Tablespoon",
                    "weight": 3.0
                },
                {
                    "uri": "http://www.edamam.com/ontologies/edamam.owl#Measure_container",
                    "label": "Container",
                    "weight": 180.0
                },
                {
                    "uri": "http://www.edamam.com/ontologies/edamam.owl#Measure_tub",
                    "label": "Tub",
                    "weight": 180.0
                },
                {
                    "uri": "http://www.edamam.com/ontologies/edamam.owl#Measure_gram",
                    "label": "Gram",
                    "weight": 1.0
                },
                {
                    "uri": "http://www.edamam.com/ontologies/edamam.owl#Measure_carton",
                    "label": "Carton",
                    "weight": 180.0
                },
                {
                    "uri": "http://www.edamam.com/ontologies/edamam.owl#Measure_pound",
                    "label": "Pound",
                    "weight": 453.59237
                },
                {
                    "uri": "http://www.edamam.com/ontologies/edamam.owl#Measure_kilogram",
                    "label": "Kilogram",
                    "weight": 1000.0
                }
            ]
        },
        {
            "food": {
                "foodId": "food_a36awbgbdv26t9beq67uqa7dq3ar",
                "label": "Cream, Sour, Reduced Fat, Cultured",
                "knownAs": "Cream, sour, reduced fat, cultured",
                "nutrients": {
                    "ENERC_KCAL": 135.0,
                    "PROCNT": 2.94,
                    "FAT": 12.0,
                    "CHOCDF": 4.26,
                    "FIBTG": 0.0
                },
                "category": "Generic foods",
                "categoryLabel": "food",
                "image": "https://www.edamam.com/food-img/892/892c7c1fb226fbe18c1fa7a764395e1d.jpg"
            },
            "measures": [
                {
                    "uri": "http://www.edamam.com/ontologies/edamam.owl#Measure_serving",
                    "label": "Serving",
                    "weight": 30.0
                },
                {
                    "uri": "http://www.edamam.com/ontologies/edamam.owl#Measure_cup",
                    "label": "Cup",
                    "weight": 242.0
                },
                {
                    "uri": "http://www.edamam.com/ontologies/edamam.owl#Measure_tablespoon",
                    "label": "Tablespoon",
                    "weight": 15.0
                },
                {
                    "uri": "http://www.edamam.com/ontologies/edamam.owl#Measure_ounce",
                    "label": "Ounce",
                    "weight": 28.349523125
                },
                {
                    "uri": "http://www.edamam.com/ontologies/edamam.owl#Measure_gram",
                    "label": "Gram",
                    "weight": 1.0
                },
                {
                    "uri": "http://www.edamam.com/ontologies/edamam.owl#Measure_pound",
                    "label": "Pound",
                    "weight": 453.59237
                },
                {
                    "uri": "http://www.edamam.com/ontologies/edamam.owl#Measure_kilogram",
                    "label": "Kilogram",
                    "weight": 1000.0
                }
            ]
        },
        {
            "food": {
                "foodId": "food_bmrq3z8bo5n9daap56r2bbj5d9fo",
                "label": "Cream, Sour, Cultured",
                "knownAs": "Cream, sour, cultured",
                "nutrients": {
                    "ENERC_KCAL": 198.0,
                    "PROCNT": 2.44,
                    "FAT": 19.4,
                    "CHOCDF": 4.63,
                    "FIBTG": 0.0
                },
                "category": "Generic foods",
                "categoryLabel": "food",
                "image": "https://www.edamam.com/food-img/f9d/f9d6183267b041b0aff9a10b89c9c15f.jpg"
            },
            "measures": [
                {
                    "uri": "http://www.edamam.com/ontologies/edamam.owl#Measure_serving",
                    "label": "Serving",
                    "weight": 15.0
                },
                {
                    "uri": "http://www.edamam.com/ontologies/edamam.owl#Measure_cup",
                    "label": "Cup",
                    "weight": 230.0
                },
                {
                    "uri": "http://www.edamam.com/ontologies/edamam.owl#Measure_ounce",
                    "label": "Ounce",
                    "weight": 28.349523125
                },
                {
                    "uri": "http://www.edamam.com/ontologies/edamam.owl#Measure_tablespoon",
                    "label": "Tablespoon",
                    "weight": 12.0
                },
                {
                    "uri": "http://www.edamam.com/ontologies/edamam.owl#Measure_gram",
                    "label": "Gram",
                    "weight": 1.0
                },
                {
                    "uri": "http://www.edamam.com/ontologies/edamam.owl#Measure_pound",
                    "label": "Pound",
                    "weight": 453.59237
                },
                {
                    "uri": "http://www.edamam.com/ontologies/edamam.owl#Measure_kilogram",
                    "label": "Kilogram",
                    "weight": 1000.0
                }
            ]
        },
        {
            "food": {
                "foodId": "food_ao8ah0gbg26k5qbafrl9cb1gw4v0",
                "label": "Eggnog",
                "knownAs": "Eggnog",
                "nutrients": {
                    "ENERC_KCAL": 88.0,
                    "PROCNT": 4.55,
                    "FAT": 4.19,
                    "CHOCDF": 8.05,
                    "FIBTG": 0.0
                },
                "category": "Generic foods",
                "categoryLabel": "food",
                "image": "https://www.edamam.com/food-img/f91/f91dda9da64e75cbc582840ac0272dca.jpg"
            },
            "measures": [
                {
                    "uri": "http://www.edamam.com/ontologies/edamam.owl#Measure_cup",
                    "label": "Cup",
                    "weight": 254.0
                },
                {
                    "uri": "http://www.edamam.com/ontologies/edamam.owl#Measure_serving",
                    "label": "Serving",
                    "weight": 254.0
                },
                {
                    "uri": "http://www.edamam.com/ontologies/edamam.owl#Measure_ounce",
                    "label": "Ounce",
                    "weight": 28.349523125
                },
                {
                    "uri": "http://www.edamam.com/ontologies/edamam.owl#Measure_quart",
                    "label": "Quart",
                    "weight": 1016.0
                },
                {
                    "uri": "http://www.edamam.com/ontologies/edamam.owl#Measure_gram",
                    "label": "Gram",
                    "weight": 1.0
                },
                {
                    "uri": "http://www.edamam.com/ontologies/edamam.owl#Measure_pound",
                    "label": "Pound",
                    "weight": 453.59237
                },
                {
                    "uri": "http://www.edamam.com/ontologies/edamam.owl#Measure_kilogram",
                    "label": "Kilogram",
                    "weight": 1000.0
                },
                {
                    "uri": "http://www.edamam.com/ontologies/edamam.owl#Measure_fluid_ounce",
                    "label": "Fluid ounce",
                    "weight": 31.8
                }
            ]
        },
        {
            "food": {
                "foodId": "food_a3tc2fnakuih2wbzd1kt6a3qs5k2",
                "label": "Sour Dressing, Non-Butterfat, Cultured, Filled Cream-Type",
                "knownAs": "Sour dressing, non-butterfat, cultured, filled cream-type",
                "nutrients": {
                    "ENERC_KCAL": 178.0,
                    "PROCNT": 3.25,
                    "FAT": 16.6,
                    "CHOCDF": 4.68,
                    "FIBTG": 0.0
                },
                "category": "Generic foods",
                "categoryLabel": "food",
                "image": "https://www.edamam.com/food-img/03f/03f2da343458b7f90fb07429a4cd61f2.jpg",
                "servingSizes": [
                    {
                        "uri": "http://www.edamam.com/ontologies/edamam.owl#Measure_gram",
                        "label": "Gram",
                        "quantity": 24.0
                    },
                    {
                        "uri": "http://www.edamam.com/ontologies/edamam.owl#Measure_tablespoon",
                        "label": "Tablespoon",
                        "quantity": 2.0
                    }
                ]
            },
            "measures": [
                {
                    "uri": "http://www.edamam.com/ontologies/edamam.owl#Measure_serving",
                    "label": "Serving",
                    "weight": 24.0
                },
                {
                    "uri": "http://www.edamam.com/ontologies/edamam.owl#Measure_gram",
                    "label": "Gram",
                    "weight": 1.0
                },
                {
                    "uri": "http://www.edamam.com/ontologies/edamam.owl#Measure_ounce",
                    "label": "Ounce",
                    "weight": 28.349523125
                },
                {
                    "uri": "http://www.edamam.com/ontologies/edamam.owl#Measure_pound",
                    "label": "Pound",
                    "weight": 453.59237
                },
                {
                    "uri": "http://www.edamam.com/ontologies/edamam.owl#Measure_kilogram",
                    "label": "Kilogram",
                    "weight": 1000.0
                },
                {
                    "uri": "http://www.edamam.com/ontologies/edamam.owl#Measure_tablespoon",
                    "label": "Tablespoon",
                    "weight": 12.0
                },
                {
                    "uri": "http://www.edamam.com/ontologies/edamam.owl#Measure_cup",
                    "label": "Cup",
                    "weight": 235.0
                }
            ]
        },
        {
            "food": {
                "foodId": "food_bj3u0myb873h02bw0ck1qbekrxw1",
                "label": "Milk, Filled, Fluid, With Blend of Hydrogenated Vegetable Oils",
                "knownAs": "Milk, filled, fluid, with blend of hydrogenated vegetable oils",
                "nutrients": {
                    "ENERC_KCAL": 63.0,
                    "PROCNT": 3.33,
                    "FAT": 3.46,
                    "CHOCDF": 4.74,
                    "FIBTG": 0.0
                },
                "category": "Generic foods",
                "categoryLabel": "food",
                "servingSizes": [
                    {
                        "uri": "http://www.edamam.com/ontologies/edamam.owl#Measure_cup",
                        "label": "Cup",
                        "quantity": 1.0
                    },
                    {
                        "uri": "http://www.edamam.com/ontologies/edamam.owl#Measure_gram",
                        "label": "Gram",
                        "quantity": 244.0
                    }
                ]
            },
            "measures": [
                {
                    "uri": "http://www.edamam.com/ontologies/edamam.owl#Measure_serving",
                    "label": "Serving",
                    "weight": 244.0
                },
                {
                    "uri": "http://www.edamam.com/ontologies/edamam.owl#Measure_cup",
                    "label": "Cup",
                    "weight": 244.0
                },
                {
                    "uri": "http://www.edamam.com/ontologies/edamam.owl#Measure_gram",
                    "label": "Gram",
                    "weight": 1.0
                },
                {
                    "uri": "http://www.edamam.com/ontologies/edamam.owl#Measure_ounce",
                    "label": "Ounce",
                    "weight": 28.349523125
                },
                {
                    "uri": "http://www.edamam.com/ontologies/edamam.owl#Measure_pound",
                    "label": "Pound",
                    "weight": 453.59237
                },
                {
                    "uri": "http://www.edamam.com/ontologies/edamam.owl#Measure_kilogram",
                    "label": "Kilogram",
                    "weight": 1000.0
                },
                {
                    "uri": "http://www.edamam.com/ontologies/edamam.owl#Measure_quart",
                    "label": "Quart",
                    "weight": 976.0
                }
            ]
        },
        {
            "food": {
                "foodId": "food_bx9jx6rbkgt947ask3ipnbf0n8qq",
                "label": "Milk, Filled, Fluid, With Lauric Acid Oil",
                "knownAs": "Milk, filled, fluid, with lauric acid oil",
                "nutrients": {
                    "ENERC_KCAL": 63.0,
                    "PROCNT": 3.33,
                    "FAT": 3.4,
                    "CHOCDF": 4.74,
                    "FIBTG": 0.0
                },
                "category": "Generic foods",
                "categoryLabel": "food",
                "image": "https://www.edamam.com/food-img/112/112643371ca56c045c2dfdedbbe49831.jpg",
                "servingSizes": [
                    {
                        "uri": "http://www.edamam.com/ontologies/edamam.owl#Measure_gram",
                        "label": "Gram",
                        "quantity": 244.0
                    },
                    {
                        "uri": "http://www.edamam.com/ontologies/edamam.owl#Measure_cup",
                        "label": "Cup",
                        "quantity": 1.0
                    }
                ]
            },
            "measures": [
                {
                    "uri": "http://www.edamam.com/ontologies/edamam.owl#Measure_serving",
                    "label": "Serving",
                    "weight": 244.0
                },
                {
                    "uri": "http://www.edamam.com/ontologies/edamam.owl#Measure_cup",
                    "label": "Cup",
                    "weight": 244.0
                },
                {
                    "uri": "http://www.edamam.com/ontologies/edamam.owl#Measure_gram",
                    "label": "Gram",
                    "weight": 1.0
                },
                {
                    "uri": "http://www.edamam.com/ontologies/edamam.owl#Measure_ounce",
                    "label": "Ounce",
                    "weight": 28.349523125
                },
                {
                    "uri": "http://www.edamam.com/ontologies/edamam.owl#Measure_pound",
                    "label": "Pound",
                    "weight": 453.59237
                },
                {
                    "uri": "http://www.edamam.com/ontologies/edamam.owl#Measure_kilogram",
                    "label": "Kilogram",
                    "weight": 1000.0
                },
                {
                    "uri": "http://www.edamam.com/ontologies/edamam.owl#Measure_fluid_ounce",
                    "label": "Fluid ounce",
                    "weight": 30.5
                },
                {
                    "uri": "http://www.edamam.com/ontologies/edamam.owl#Measure_quart",
                    "label": "Quart",
                    "weight": 976.0
                }
            ]
        },
        {
            "food": {
                "foodId": "food_bvm7okwam18ub4b2ssnovadbwh70",
                "label": "Cheese, American, Nonfat or Fat Free",
                "knownAs": "Cheese, American, nonfat or fat free",
                "nutrients": {
                    "ENERC_KCAL": 126.0,
                    "PROCNT": 21.0,
                    "FAT": 0.0,
                    "CHOCDF": 10.5,
                    "FIBTG": 0.0
                },
                "category": "Generic foods",
                "categoryLabel": "food",
                "image": "https://www.edamam.com/food-img/6b1/6b1a96d3ab89d255112c3df723886382.jpg"
            },
            "measures": [
                {
                    "uri": "http://www.edamam.com/ontologies/edamam.owl#Measure_serving",
                    "label": "Serving",
                    "weight": 19.0
                },
                {
                    "uri": "http://www.edamam.com/ontologies/edamam.owl#Measure_tablespoon",
                    "label": "Tablespoon",
                    "weight": 19.0
                },
                {
                    "uri": "http://www.edamam.com/ontologies/edamam.owl#Measure_gram",
                    "label": "Gram",
                    "weight": 1.0
                },
                {
                    "uri": "http://www.edamam.com/ontologies/edamam.owl#Measure_ounce",
                    "label": "Ounce",
                    "weight": 28.349523125
                },
                {
                    "uri": "http://www.edamam.com/ontologies/edamam.owl#Measure_pound",
                    "label": "Pound",
                    "weight": 453.59237
                },
                {
                    "uri": "http://www.edamam.com/ontologies/edamam.owl#Measure_kilogram",
                    "label": "Kilogram",
                    "weight": 1000.0
                },
                {
                    "uri": "http://www.edamam.com/ontologies/edamam.owl#Measure_teaspoon",
                    "label": "Teaspoon",
                    "weight": 6.333333334
                }
            ]
        }
    ],
    "_links": {
        "next": {
            "href": "https://api.edamam.com/api/food-database/v2/parser?session=CHcDEWgVY0lhWBENQWVcETMBaVU-&app_id=65b8f7e0&app_key=fc225b1b6a6a93714b02e54b6c953467&ingr=",
            "title": "Next page"
        }
    }
}